(;FF[4]GM[1]SZ[9]
C[Save only those that are savable!]
AW[bg][cf][ch][bb][ca][fc][gb][hc][be][ae]AB[bf][cg][gc][ba]
(;B[dg]
;W[]
(;B[gd]C[Correct!]TE[1]
)(;B[aa]
;W[ab]C[How sad...]
)(;B[af]
;W[ag]C[How sad...]
))(;B[gd]
;W[]
(;B[dg]C[Correct!]TE[1]
)(;B[aa]
;W[ab]C[How sad...]
)(;B[af]
;W[ag]C[How sad...]
))(;B[aa]
;W[ab]C[How sad...]
)(;B[af]
;W[ag]C[How sad...]
))
